{
 "font": {
  "fileName": "MFI-Setperset-Round-Thin"
 }, 
 "generator": {
  "contextualShape": true, 
  "insideCornerRadius": 50, 
  "offset": 35, 
  "outsideCornerRadius": 50, 
  "width": 55
 }, 
 "inherit": [
  "./options/options.jsn"
 ], 
 "metadata": {
  "familyname": "MFI Setperset Round", 
  "fontname": "MFI-Setperset-Round-Thin", 
  "fullname": "MFI Setperset Round Thin", 
  "more": {
   "English": {
    "Descriptor": "Edited version of Setperset. Original font created in the Fonts.txt workshop at BAU, Barcelona (2014). Built with graphicoreBMFB and Fontforge.", 
    "Designer": "Ana Isabel Carvalho, Ricardo Lafuente, Nelson Dieguez, Oriol Gayán, Vanessa Pacheco, Irene Serrano", 
    "Designer URL": "", 
    "License": "OFL", 
    "License URL": "http://scripts.sil.org/OFL", 
    "Manufacturer": "Manufactura Independente", 
    "SubFamily": "Thin", 
    "Trademark": "", 
    "Vendor URL": "http://manufacturaindependente.org"
   }
  }, 
  "weight": "Thin"
 }
}
